-0.03 0.02      0.0 1.0      1.0 1.0 1.0 1.0
0.03 0.02       1.0 1.0      1.0 1.0 1.0 1.0
0.03 -0.02      1.0 0.0      1.0 1.0 1.0 1.0

-0.03 0.02      0.0 1.0      1.0 1.0 1.0 1.0
0.03 -0.02      1.0 0.0      1.0 1.0 1.0 1.0
-0.03 -0.02     0.0 0.0      1.0 1.0 1.0 1.0
